\relax 
\bibstyle{ifacconf}
\providecommand\babel@aux[2]{}
\@nameuse{bbl@beforestart}
\catcode `"\active 
\catcode `<\active 
\catcode `>\active 
\@nameuse{es@quoting}
\citation{Cardoso2017DeepLA}
\newlabel{footnoteinfo}{{\hbox {$\star $}\relax }{1}}
\newlabel{First}{{*\relax }{1}}
\newlabel{Second}{{**\relax }{1}}
\newlabel{Third}{{*** \relax }{1}}
\babel@aux{english}{}
\babel@aux{english}{}
\babel@aux{brazil}{}
\global\@namedef{n@author@}{3}
\global\@namedef{n@collab@}{0}
\babel@aux{brazil}{}
\babel@aux{english}{}
\babel@aux{brazil}{}
\babel@aux{english}{}
\babel@aux{english}{}
\babel@aux{brazil}{}
\babel@aux{english}{}
\babel@aux{english}{}
\babel@aux{brazil}{}
\@writefile{toc}{\contentsline {section}{\numberline {1}Introdução}{1}{}\protected@file@percent }
\citation{39bars_system}
\citation{ANATEM_article}
\@writefile{toc}{\contentsline {section}{\numberline {2}Descrição do problema}{2}{}\protected@file@percent }
\@writefile{toc}{\contentsline {section}{\numberline {3}Metodologia}{2}{}\protected@file@percent }
\@writefile{toc}{\contentsline {subsection}{\numberline {3.1}Simulação do sistema}{2}{}\protected@file@percent }
\citation{KNN}
\citation{TNSLT}
\@writefile{toc}{\contentsline {subsection}{\numberline {3.2}Pré processamento dos dados}{3}{}\protected@file@percent }
\newlabel{equation:mean}{{1}{3}}
\newlabel{equation:std_deviation}{{2}{3}}
\newlabel{equation:stardatization}{{3}{3}}
\@writefile{toc}{\contentsline {subsection}{\numberline {3.3}Detecção da falta}{3}{}\protected@file@percent }
\@writefile{toc}{\contentsline {subsection}{\numberline {3.4}Localização da falta}{3}{}\protected@file@percent }
\newlabel{equation:f1_score}{{4}{3}}
\@writefile{toc}{\contentsline {subsection}{\numberline {3.5}Análise do impacto causado pelo número de PMUs alocadas}{3}{}\protected@file@percent }
\@writefile{lof}{\contentsline {figure}{\numberline {1}{\ignorespaces Relação entre a precisão do sistema e o número de PMUs}}{4}{}\protected@file@percent }
\newlabel{fig:location_accuracy}{{1}{4}}
\@writefile{toc}{\contentsline {section}{\numberline {4}Resultados}{4}{}\protected@file@percent }
\@writefile{lof}{\contentsline {figure}{\numberline {2}{\ignorespaces PMUs mais relevantes no sistema para o problema de localização de falta}}{4}{}\protected@file@percent }
\newlabel{fig:pmu_relevance}{{2}{4}}
\@writefile{toc}{\contentsline {section}{\numberline {5}Conclusão}{4}{}\protected@file@percent }
\bibdata{ifacconf}
\bibcite{39bars_system}{{1}{1979}{{Athay et~al.}}{{Athay, Podmore, and Virmani}}}
\bibcite{Cardoso2017DeepLA}{{2}{2017}{{Cardoso}}{{}}}
\bibcite{TNSLT}{{3}{1997}{{Cherkassky}}{{}}}
\bibcite{KNN}{{4}{1967}{{Cover and Hart}}{{}}}
\bibcite{ANATEM_article}{{5}{1994}{{Oliveira et~al.}}{{Oliveira, Rangel, Thomé, Baitelli, and Guimarães}}}
\global\c@lastpage=5
\global\NAT@numbersfalse
\gdef \@abspage@last{5}
