# Fdb version 4
["bibtex sbaconf"] 1684799847 "sbaconf.aux" "sbaconf.bbl" "sbaconf" 1684800176 0
  "./ifacconf.bib" 1684798084 1323 d373dcfc0062d5e4b1ed372b45438662 ""
  "./ifacconf.bst" 1683430738 30606 0a94c3be66b01cc15224e14423d70f48 ""
  "sbaconf.aux" 1684800175 2871 90175e2398585e3d51b7bd1a352fbb2e "pdflatex"
  (generated)
  "sbaconf.bbl"
  "sbaconf.blg"
  (rewritten before read)
["pdflatex"] 1684800175 "c:/Users/pedro/Desktop/Mestrado/Projeto/FaultLocation_PowerSystem/Artigo/sbaconf.tex" "sbaconf.pdf" "sbaconf" 1684800176 0
  "C:/Users/pedro/AppData/Local/MiKTeX/fonts/map/pdftex/pdftex.map" 1683431076 82794 3356c8c6c52528dda375b8aed03f628e ""
  "C:/Users/pedro/AppData/Local/MiKTeX/miktex/data/le/pdftex/pdflatex.fmt" 1672082287 23168607 ff1cf8e981bfd213fa4b486a50ea5465 ""
  "C:/Users/pedro/AppData/Local/Programs/MiKTeX/fonts/tfm/jknappen/ec/ecrm1000.tfm" 993062122 3148 7e594c8240c71e432203f65ab5f95a51 ""
  "C:/Users/pedro/AppData/Local/Programs/MiKTeX/fonts/tfm/public/ae/aeb10.tfm" 1057861800 6132 78e5594f4fe2bad148a7cb22806d1f42 ""
  "C:/Users/pedro/AppData/Local/Programs/MiKTeX/fonts/tfm/public/ae/aer10.tfm" 1057861800 6076 dc5394361b1c55a30e76ff07ab99157c ""
  "C:/Users/pedro/AppData/Local/Programs/MiKTeX/fonts/tfm/public/ae/aer12.tfm" 1057861800 6084 d3a937b1dfbe4f0e2c719f2d6acacced ""
  "C:/Users/pedro/AppData/Local/Programs/MiKTeX/fonts/tfm/public/ae/aer8.tfm" 1057861800 6088 ce5fd064721af4ab5ebb4c0bd801226f ""
  "C:/Users/pedro/AppData/Local/Programs/MiKTeX/fonts/tfm/public/ae/aeti10.tfm" 1057861800 7236 91161c92aeeced20d93e1ef8554f8511 ""
  "C:/Users/pedro/AppData/Local/Programs/MiKTeX/fonts/tfm/public/cm/cmb10.tfm" 1136765053 1336 fb32298c2d61d0c4b59f3065fdd6def9 ""
  "C:/Users/pedro/AppData/Local/Programs/MiKTeX/fonts/tfm/public/cm/cmbsy10.tfm" 1136765053 1116 4e6ba9d7914baa6482fd69f67d126380 ""
  "C:/Users/pedro/AppData/Local/Programs/MiKTeX/fonts/tfm/public/cm/cmex10.tfm" 1136765053 992 662f679a0b3d2d53c1b94050fdaa3f50 ""
  "C:/Users/pedro/AppData/Local/Programs/MiKTeX/fonts/tfm/public/cm/cmmi10.tfm" 1136765053 1528 abec98dbc43e172678c11b3b9031252a ""
  "C:/Users/pedro/AppData/Local/Programs/MiKTeX/fonts/tfm/public/cm/cmmi12.tfm" 1136765053 1524 4414a8315f39513458b80dfc63bff03a ""
  "C:/Users/pedro/AppData/Local/Programs/MiKTeX/fonts/tfm/public/cm/cmmi6.tfm" 1136765053 1512 f21f83efb36853c0b70002322c1ab3ad ""
  "C:/Users/pedro/AppData/Local/Programs/MiKTeX/fonts/tfm/public/cm/cmmi8.tfm" 1136765053 1520 eccf95517727cb11801f4f1aee3a21b4 ""
  "C:/Users/pedro/AppData/Local/Programs/MiKTeX/fonts/tfm/public/cm/cmmib10.tfm" 1136765053 1524 554068197b70979a55370e6c6495f441 ""
  "C:/Users/pedro/AppData/Local/Programs/MiKTeX/fonts/tfm/public/cm/cmr12.tfm" 1136765053 1288 655e228510b4c2a1abe905c368440826 ""
  "C:/Users/pedro/AppData/Local/Programs/MiKTeX/fonts/tfm/public/cm/cmr6.tfm" 1136765053 1300 b62933e007d01cfd073f79b963c01526 ""
  "C:/Users/pedro/AppData/Local/Programs/MiKTeX/fonts/tfm/public/cm/cmr8.tfm" 1136765053 1292 21c1c5bfeaebccffdb478fd231a0997d ""
  "C:/Users/pedro/AppData/Local/Programs/MiKTeX/fonts/tfm/public/cm/cmsl10.tfm" 1136765053 1508 efecb4a315fe0975509670a272d75ef5 ""
  "C:/Users/pedro/AppData/Local/Programs/MiKTeX/fonts/tfm/public/cm/cmsy10.tfm" 1136765053 1124 6c73e740cf17375f03eec0ee63599741 ""
  "C:/Users/pedro/AppData/Local/Programs/MiKTeX/fonts/tfm/public/cm/cmsy6.tfm" 1136765053 1116 933a60c408fc0a863a92debe84b2d294 ""
  "C:/Users/pedro/AppData/Local/Programs/MiKTeX/fonts/tfm/public/cm/cmsy8.tfm" 1136765053 1120 8b7d695260f3cff42e636090a8002094 ""
  "C:/Users/pedro/AppData/Local/Programs/MiKTeX/fonts/tfm/public/cm/cmti10.tfm" 1136765053 1480 aa8e34af0eb6a2941b776984cf1dfdc4 ""
  "C:/Users/pedro/AppData/Local/Programs/MiKTeX/fonts/tfm/public/cm/cmu10.tfm" 1136765053 1276 d1b8c21fa8328272b4e5e6bc10761e6e ""
  "C:/Users/pedro/AppData/Local/Programs/MiKTeX/fonts/tfm/public/latex-fonts/lasy10.tfm" 1136765053 520 82a3d37183f34b6eb363a161dfc002c2 ""
  "C:/Users/pedro/AppData/Local/Programs/MiKTeX/fonts/tfm/public/latex-fonts/lasy5.tfm" 1136765053 520 d082ac03a1087bc1ec2a06e24a9f68c0 ""
  "C:/Users/pedro/AppData/Local/Programs/MiKTeX/fonts/tfm/public/latex-fonts/lasy6.tfm" 1136765053 520 4889cce2180234b97cad636b6039c722 ""
  "C:/Users/pedro/AppData/Local/Programs/MiKTeX/fonts/tfm/public/latex-fonts/lasy7.tfm" 1136765053 520 a74c6ed8cb48679fdc3ea874d9d34a7e ""
  "C:/Users/pedro/AppData/Local/Programs/MiKTeX/fonts/tfm/public/latex-fonts/lasy8.tfm" 1136765053 520 7bb3abb160b19e0ed6ac404bb59052b7 ""
  "C:/Users/pedro/AppData/Local/Programs/MiKTeX/fonts/type1/public/amsfonts/cm/cmb10.pfb" 1247596666 31983 5d427b4625a4a5976c1b1c43cab14bba ""
  "C:/Users/pedro/AppData/Local/Programs/MiKTeX/fonts/type1/public/amsfonts/cm/cmex10.pfb" 1247596667 30251 6afa5cb1d0204815a708a080681d4674 ""
  "C:/Users/pedro/AppData/Local/Programs/MiKTeX/fonts/type1/public/amsfonts/cm/cmmi10.pfb" 1247596667 36299 5f9df58c2139e7edcf37c8fca4bd384d ""
  "C:/Users/pedro/AppData/Local/Programs/MiKTeX/fonts/type1/public/amsfonts/cm/cmmi7.pfb" 1247596667 36281 c355509802a035cadc5f15869451dcee ""
  "C:/Users/pedro/AppData/Local/Programs/MiKTeX/fonts/type1/public/amsfonts/cm/cmmi8.pfb" 1247596666 35469 dcf3a5f2fc1862f5952e3ee5eb1d98c4 ""
  "C:/Users/pedro/AppData/Local/Programs/MiKTeX/fonts/type1/public/amsfonts/cm/cmr10.pfb" 1247596667 35752 024fb6c41858982481f6968b5fc26508 ""
  "C:/Users/pedro/AppData/Local/Programs/MiKTeX/fonts/type1/public/amsfonts/cm/cmr7.pfb" 1247596667 32762 7fee39e011c23b3589931effd97b9702 ""
  "C:/Users/pedro/AppData/Local/Programs/MiKTeX/fonts/type1/public/amsfonts/cm/cmsy10.pfb" 1247596667 32569 5e5ddc8df908dea60932f3c484a54c0d ""
  "C:/Users/pedro/AppData/Local/Programs/MiKTeX/fonts/type1/public/amsfonts/cm/cmsy7.pfb" 1247596666 32716 08e384dc442464e7285e891af9f45947 ""
  "C:/Users/pedro/AppData/Local/Programs/MiKTeX/fonts/type1/public/amsfonts/cm/cmti10.pfb" 1247596667 37944 359e864bd06cde3b1cf57bb20757fb06 ""
  "C:/Users/pedro/AppData/Local/Programs/MiKTeX/fonts/vf/public/ae/aeb10.vf" 1057861800 3204 33087d8d1b5ca03fcc323578bd8c2ab9 ""
  "C:/Users/pedro/AppData/Local/Programs/MiKTeX/fonts/vf/public/ae/aer10.vf" 1057861800 3160 99d961359fad2b22331b477acf927f3b ""
  "C:/Users/pedro/AppData/Local/Programs/MiKTeX/fonts/vf/public/ae/aeti10.vf" 1057861800 3152 6c73a19f64f9917772e63a3836e2fceb ""
  "C:/Users/pedro/AppData/Local/Programs/MiKTeX/tex/context/base/mkii/supp-pdf.mkii" 1580390158 71627 94eb9990bed73c364d7f53f960cc8c5b ""
  "C:/Users/pedro/AppData/Local/Programs/MiKTeX/tex/generic/babel/babel.sty" 1669805391 152859 fed5a9b0cf81917495a3dc35955251ea ""
  "C:/Users/pedro/AppData/Local/Programs/MiKTeX/tex/generic/babel/locale/en/babel-en.ini" 1669805391 3966 caeee5a9e5771d4446aa1ca9015ba1b2 ""
  "C:/Users/pedro/AppData/Local/Programs/MiKTeX/tex/generic/babel/locale/en/babel-english.tex" 1669805391 336 ed676b5e7dfd862bc78d634f6a973f37 ""
  "C:/Users/pedro/AppData/Local/Programs/MiKTeX/tex/generic/babel/locale/es/babel-es.ini" 1669805391 4345 33a8cc6f0a7c6afcb84895b2c963a4e5 ""
  "C:/Users/pedro/AppData/Local/Programs/MiKTeX/tex/generic/babel/locale/es/babel-spanish.tex" 1669805391 336 a1c472f674f6f0c25a2c95ad8c7ad024 ""
  "C:/Users/pedro/AppData/Local/Programs/MiKTeX/tex/generic/babel/txtbabel.def" 1669805391 5233 d5e383ed66bf272b71b1a90b596e21c6 ""
  "C:/Users/pedro/AppData/Local/Programs/MiKTeX/tex/generic/iftex/iftex.sty" 1643997108 7237 bdd120a32c8fdb4b433cf9ca2e7cd98a ""
  "C:/Users/pedro/AppData/Local/Programs/MiKTeX/tex/generic/infwarerr/infwarerr.sty" 1575399508 8356 7bbb2c2373aa810be568c29e333da8ed ""
  "C:/Users/pedro/AppData/Local/Programs/MiKTeX/tex/generic/kvdefinekeys/kvdefinekeys.sty" 1576763304 5412 d5a2436094cd7be85769db90f29250a6 ""
  "C:/Users/pedro/AppData/Local/Programs/MiKTeX/tex/generic/ltxcmds/ltxcmds.sty" 1601735609 18568 4409f8f50cd365c68e684407e5350b1b ""
  "C:/Users/pedro/AppData/Local/Programs/MiKTeX/tex/generic/pdftexcmds/pdftexcmds.sty" 1623005277 20089 80423eac55aa175305d35b49e04fe23b ""
  "C:/Users/pedro/AppData/Local/Programs/MiKTeX/tex/latex/00miktex/epstopdf-sys.cfg" 1616067285 584 2a1075dd71571459f59146da9f7502ad ""
  "C:/Users/pedro/AppData/Local/Programs/MiKTeX/tex/latex/ae/ae.sty" 1177083840 1225 5aef800ba6cda7885d41428e026f49e3 ""
  "C:/Users/pedro/AppData/Local/Programs/MiKTeX/tex/latex/ae/t1aer.fd" 1177081080 1844 da911cbbb4e7e5dc2776545b8b9cbc06 ""
  "C:/Users/pedro/AppData/Local/Programs/MiKTeX/tex/latex/amsmath/amsbsy.sty" 1655058189 2222 78b930a5a6e3dc2ac69b78c2057b94d7 ""
  "C:/Users/pedro/AppData/Local/Programs/MiKTeX/tex/latex/amsmath/amsgen.sty" 1655058191 4173 c989ee3ced31418e3593916ab26c793a ""
  "C:/Users/pedro/AppData/Local/Programs/MiKTeX/tex/latex/amsmath/amsmath.sty" 1655058191 88393 1adf6fa3f245270d06e3d4f8910f7fc5 ""
  "C:/Users/pedro/AppData/Local/Programs/MiKTeX/tex/latex/amsmath/amsopn.sty" 1655058192 4474 f04cd1cc7bd76eb033e6fb12eb6a0d77 ""
  "C:/Users/pedro/AppData/Local/Programs/MiKTeX/tex/latex/amsmath/amstext.sty" 1655058193 2444 70065bddd85997dc1fd0bb7ae634e5fa ""
  "C:/Users/pedro/AppData/Local/Programs/MiKTeX/tex/latex/arabi/bblopts.cfg" 1139961600 902 c30e5c373bc58bde21f8f63a3091626f ""
  "C:/Users/pedro/AppData/Local/Programs/MiKTeX/tex/latex/babel-english/english.ldf" 1623001666 7008 9ff5fdcc865b01beca2b0fe4a46231d4 ""
  "C:/Users/pedro/AppData/Local/Programs/MiKTeX/tex/latex/babel-portuges/brazil.ldf" 1626079182 6591 308dec8ccec5a8d302be8a046d473dd3 ""
  "C:/Users/pedro/AppData/Local/Programs/MiKTeX/tex/latex/babel-spanish/spanish.ldf" 1622279580 26965 3b6d1655ad716f98e788b1fb9f2e87b8 ""
  "C:/Users/pedro/AppData/Local/Programs/MiKTeX/tex/latex/base/fontenc.sty" 1669844196 5119 4ce42f43368f652f9c9522d943cce8e4 ""
  "C:/Users/pedro/AppData/Local/Programs/MiKTeX/tex/latex/base/inputenc.sty" 1669844196 5048 84b05796b49b69e2d4257d537721c960 ""
  "C:/Users/pedro/AppData/Local/Programs/MiKTeX/tex/latex/base/latexsym.sty" 1669844196 2853 20079b4b35694992ccfaced080c81145 ""
  "C:/Users/pedro/AppData/Local/Programs/MiKTeX/tex/latex/base/newlfont.sty" 1669844196 2911 dd1a53b1c6afddc9ae089a5db6f9dfb5 ""
  "C:/Users/pedro/AppData/Local/Programs/MiKTeX/tex/latex/base/ulasy.fd" 1669844196 2233 d6b57110698f3bfccb4912aef8c8acb2 ""
  "C:/Users/pedro/AppData/Local/Programs/MiKTeX/tex/latex/epstopdf-pkg/epstopdf-base.sty" 1623003186 13886 d1306dcf79a944f6988e688c1785f9ce ""
  "C:/Users/pedro/AppData/Local/Programs/MiKTeX/tex/latex/graphics-cfg/graphics.cfg" 1465894292 1224 978390e9c2234eab29404bc21b268d1e ""
  "C:/Users/pedro/AppData/Local/Programs/MiKTeX/tex/latex/graphics-def/pdftex.def" 1663918690 19448 1e988b341dda20961a6b931bcde55519 ""
  "C:/Users/pedro/AppData/Local/Programs/MiKTeX/tex/latex/graphics/graphics.sty" 1665067579 18387 8f900a490197ebaf93c02ae9476d4b09 ""
  "C:/Users/pedro/AppData/Local/Programs/MiKTeX/tex/latex/graphics/graphicx.sty" 1665067579 8010 a8d949cbdbc5c983593827c9eec252e1 ""
  "C:/Users/pedro/AppData/Local/Programs/MiKTeX/tex/latex/graphics/keyval.sty" 1665067579 2671 7e67d78d9b88c845599a85b2d41f2e39 ""
  "C:/Users/pedro/AppData/Local/Programs/MiKTeX/tex/latex/graphics/trig.sty" 1665067579 4023 293ea1c16429fc0c4cf605f4da1791a9 ""
  "C:/Users/pedro/AppData/Local/Programs/MiKTeX/tex/latex/grfext/grfext.sty" 1575399474 7133 b94bbacbee6e4fdccdc7f810b2aec370 ""
  "C:/Users/pedro/AppData/Local/Programs/MiKTeX/tex/latex/kvoptions/kvoptions.sty" 1656236481 22555 6d8e155cfef6d82c3d5c742fea7c992e ""
  "C:/Users/pedro/AppData/Local/Programs/MiKTeX/tex/latex/kvsetkeys/kvsetkeys.sty" 1665066333 13815 760b0c02f691ea230f5359c4e1de23a7 ""
  "C:/Users/pedro/AppData/Local/Programs/MiKTeX/tex/latex/l3backend/l3backend-pdftex.def" 1666810012 30426 f2fb69fcda4dc35ed0b7dee211bce679 ""
  "C:/Users/pedro/AppData/Local/Programs/MiKTeX/tex/latex/natbib/natbib.sty" 1292249081 46712 1c8843383c0bd05870c45fa0ebea6cc2 ""
  "C:/Users/pedro/AppData/Local/Programs/MiKTeX/tex/latex/tools/theorem.sty" 1654690828 4956 72ef8d11c28cb41e9826aaedebb5f24c ""
  "C:/Users/pedro/AppData/Local/Programs/MiKTeX/tex/latex/tools/thp.sty" 1654690828 1908 fe625a4c2e82e49a095c52e8f3ac4c67 ""
  "C:/Users/pedro/AppData/Local/Programs/MiKTeX/tex/latex/url/url.sty" 1388490452 12796 8edb7d69a20b857904dd0ea757c14ec9 ""
  "Imagens/PMU_relevancia.png" 1674611737 19559 a47ca6e2e9dc55915579da40c6c4d16e ""
  "Imagens/location_Accuracy x N_Pmus.png" 1674612903 24480 5f00395c59420aa97f76ba91a550d756 ""
  "c:/Users/pedro/Desktop/Mestrado/Projeto/FaultLocation_PowerSystem/Artigo/sbaconf.tex" 1684800174 28157 5e9a77dabd87018fb1ab9a691a66b0cb ""
  "ifacconf.cls" 1683430738 65509 4f55878f71691d56a61642cb8e426222 ""
  "sbaconf.aux" 1684800175 2871 90175e2398585e3d51b7bd1a352fbb2e "pdflatex"
  "sbaconf.bbl" 1684799847 1628 20801dc19fe2dcff62368e349b7a7111 "bibtex sbaconf"
  "sbaconf.tex" 1684800174 28157 5e9a77dabd87018fb1ab9a691a66b0cb ""
  (generated)
  "sbaconf.aux"
  "sbaconf.log"
  "sbaconf.pdf"
  (rewritten before read)
